<?xml version="1.0" encoding="UTF-8"?>
<svg width="150pt" height="150pt" version="1.1" viewBox="0 0 1200 1200" xmlns="http://www.w3.org/2000/svg">
 <path d="m1200 600c0 214.36-114.36 412.44-300 519.62-185.64 107.18-414.36 107.18-600 0-185.64-107.18-300-305.26-300-519.62s114.36-412.44 300-519.62c185.64-107.18 414.36-107.18 600 0 185.64 107.18 300 305.26 300 519.62" fill="#4a8638"/>
 <path d="m741.55 472.19 106.16-114.2c-11.582-13.367-15.598-31.691-10.672-48.672 4.9258-16.984 18.125-30.316 35.062-35.41 16.934-5.0938 35.297-1.2539 48.773 10.191 13.48 11.449 20.238 28.949 17.949 46.484-2.2852 17.535-13.301 32.719-29.266 40.328-15.961 7.6133-34.695 6.6133-49.758-2.6523l-107.9 116.12c-3.2344-4.1719-6.6797-8.2305-10.34-12.176zm48.078 112.7 60.57 0.074219v0.003906c3.1289-15.004 13.594-27.426 27.848-33.059 14.254-5.6328 30.383-3.7188 42.926 5.0898 12.539 8.8086 19.809 23.336 19.34 38.656-0.46875 15.316-8.6055 29.375-21.66 37.406s-29.27 8.957-43.152 2.4688c-13.883-6.4922-23.574-19.527-25.785-34.695l-59.812-0.074219c0.14062-5.2734 0.050781-10.551-0.27344-15.832zm-52.605 139.38 55.922 59.988c23.492-19.398 55.348-25.254 84.199-15.477 28.852 9.7773 50.586 33.797 57.438 63.48 6.8555 29.68-2.1445 60.797-23.785 82.234-21.645 21.441-52.844 30.148-82.457 23.012-29.617-7.1328-53.43-29.09-62.938-58.035-9.5039-28.941-3.3477-60.742 16.27-84.047l-56.301-60.402 11.66-10.754zm-121.27 53.582-0.11328 42.492v-0.003906c15.109 2.6406 27.871 12.703 33.961 26.777 6.0898 14.074 4.6875 30.27-3.7305 43.09-8.4219 12.816-22.727 20.535-38.062 20.535s-29.641-7.7188-38.062-20.535c-8.418-12.82-9.8242-29.016-3.7344-43.09s18.855-24.137 33.965-26.777l-0.11328-42.492c5.3008 0.22656 10.59 0.22656 15.871 0zm-128.81-45.703-86.543 85.23c16.445 19.863 21.5 46.793 13.379 71.27-8.1211 24.473-28.273 43.043-53.328 49.137s-51.484-1.1445-69.938-19.156-26.332-44.254-20.848-69.453c5.4844-25.195 23.555-45.793 47.824-54.504 24.273-8.7109 51.316-4.3125 71.574 11.645l86.484-85.191 11.395 11.027zm-61.211-131.87-75.57-0.097657c-2.5625 15.105-12.551 27.914-26.582 34.078-14.027 6.1641-30.215 4.8594-43.078-3.4727-12.859-8.332-20.668-22.57-20.777-37.895-0.10937-15.324 7.4961-29.676 20.234-38.188 12.742-8.5156 28.91-10.051 43.023-4.0898 14.117 5.9648 24.285 18.625 27.066 33.695l76.016 0.10547c-0.33203 5.2656-0.4375 10.543-0.31641 15.832zm36.379-113.73-58.75-61.668c-26.652 14.801-59.062 14.75-85.672-0.12891-26.609-14.875-43.621-42.465-44.973-72.918-1.3477-30.457 13.156-59.441 38.344-76.613 25.188-17.176 57.469-20.09 85.328-7.707 27.855 12.379 47.324 38.297 51.453 68.5s-7.668 60.395-31.18 79.801l55.598 58.355c-3.5938 3.9961-6.9766 8.1094-10.148 12.34zm137.78-72.66v-49.191c-15.086-2.6719-27.824-12.75-33.887-26.824-6.0625-14.07-4.6406-30.25 3.7812-43.051 8.4219-12.801 22.719-20.508 38.043-20.508s29.617 7.707 38.043 20.508c8.4219 12.801 9.8398 28.98 3.7773 43.051-6.0625 14.074-18.797 24.152-33.887 26.824v49.188c-5.3008-0.22656-10.59-0.22656-15.871 0zm-239.02-138.08c-18.812 0-36.879 7.3555-50.336 20.504-13.453 13.145-21.234 31.035-21.672 49.84-0.43359 18.809 6.5039 37.039 19.336 50.797 5.9766-13.762 17.105-24.637 31-30.301s29.453-5.6641 43.352 0c13.895 5.6641 25.023 16.539 31 30.301 12.828-13.758 19.762-31.992 19.324-50.797-0.44141-18.805-8.2188-36.691-21.676-49.836-13.453-13.148-31.52-20.508-50.328-20.508zm0 32.035c-5.9062-0.007813-11.57 2.3281-15.75 6.5-4.1836 4.168-6.5352 9.8281-6.543 15.73-0.007813 5.9062 2.3281 11.57 6.5 15.754 4.168 4.1797 9.8281 6.5352 15.73 6.543 5.9062 0.007813 11.57-2.332 15.754-6.5 4.1797-4.1719 6.5352-9.832 6.543-15.734 0-5.9023-2.3477-11.566-6.5195-15.742-4.1719-4.1719-9.8359-6.5195-15.738-6.5234zm488.06 472.18c-18.812 0-36.879 7.3594-50.332 20.504-13.457 13.148-21.234 31.035-21.672 49.844-0.4375 18.805 6.5 37.039 19.332 50.793 5.9766-13.762 17.105-24.637 31-30.297 13.895-5.6641 29.457-5.6641 43.352 0 13.895 5.6602 25.023 16.535 31 30.297 12.828-13.758 19.762-31.988 19.324-50.793-0.44141-18.809-8.2188-36.695-21.676-49.84-13.453-13.145-31.516-20.504-50.328-20.508zm0 32.035c-5.9023 0.003906-11.566 2.3516-15.738 6.5273s-6.5156 9.8398-6.5117 15.746c0.007813 5.9023 2.3555 11.562 6.5352 15.734 4.1758 4.1719 9.8398 6.5117 15.746 6.5039 5.9023-0.003906 11.562-2.3555 15.73-6.5352 4.1719-4.1797 6.5078-9.8477 6.5-15.75 0-5.9023-2.3477-11.566-6.5234-15.738-4.1719-4.1719-9.8359-6.5195-15.738-6.5195zm-241.12-358.36c-37.707 0-73.871 14.98-100.53 41.641-26.664 26.664-41.641 62.824-41.641 100.53s14.977 73.871 41.641 100.53c26.66 26.664 62.824 41.641 100.53 41.641 37.707 0 73.867-14.977 100.53-41.641 26.66-26.66 41.641-62.824 41.641-100.53s-14.98-73.867-41.641-100.53c-26.664-26.66-62.824-41.641-100.53-41.641zm-66.164 217.09c4.9648 15.859 12.754 30.691 22.996 43.777-18.883-6.8789-35.852-18.164-49.5-32.918 8.4688-4.4609 17.344-8.0977 26.504-10.859zm158.86 10.836c-13.645 14.758-30.617 26.043-49.5 32.922 10.242-13.086 18.031-27.918 22.988-43.781 9.1641 2.7656 18.043 6.4023 26.512 10.859zm-22.137-26.07c4.375-17.992 6.7148-36.418 6.9766-54.934l48.645 0.066407v0.003906c-0.90234 24.617-9.0195 48.426-23.344 68.465-10.238-5.6797-21.059-10.238-32.277-13.602zm-173.4 13.602c-14.383-20.125-22.508-44.047-23.359-68.77l48.66 0.058594 0.003906 0.003906c0.23828 18.59 2.5781 37.098 6.9727 55.164-11.215 3.3633-22.035 7.9258-32.277 13.605zm169-148.21c-4.957-15.859-12.746-30.691-22.992-43.777 18.898 6.8672 35.879 18.152 49.531 32.91-8.4688 4.457-17.348 8.0898-26.512 10.852zm-158.82-10.867c13.645-14.758 30.617-26.047 49.5-32.926-10.242 13.086-18.031 27.918-22.996 43.777-9.1602-2.7617-18.035-6.3945-26.504-10.852zm22.129 26.105c-3.8789 15.863-6.1562 32.082-6.8008 48.402l-48.434-0.066406v-0.003907c1.9766-22.332 9.8984-43.727 22.934-61.969 10.242 5.6797 21.062 10.242 32.277 13.605zm173.4-13.602v-0.003907c13.098 18.324 21.027 39.832 22.957 62.273l-48.449-0.058594 0.003906-0.003906c-0.63281-16.391-2.9141-32.672-6.8047-48.605 11.219-3.3633 22.039-7.9258 32.277-13.605zm-110.79 7.6094v-0.003906c-14.406-0.40234-28.746-2.1406-42.832-5.1992 7.7305-22.785 22.301-48.578 42.832-54.289zm0 54.488-53.48-0.074219v-0.003906c0.61328-14.949 2.6914-29.805 6.2031-44.348 15.539 3.457 31.371 5.4141 47.277 5.8438zm0 60.965v-0.003907c-15.906 0.42969-31.738 2.3867-47.277 5.8398-4.0195-16.723-6.168-33.84-6.4062-51.039l53.656 0.066406v45.133zm0 75.398c-20.539-5.7148-35.102-31.504-42.832-54.289v-0.007813c14.086-3.0547 28.426-4.7969 42.832-5.1992zm15.871-59.488v-0.007813c14.41 0.40234 28.75 2.1445 42.836 5.1992-7.7383 22.785-22.301 48.578-42.832 54.289l-0.003907-59.488zm0-61.016 53.656 0.066406v-0.007812c-0.25391 17.145-2.4023 34.211-6.4102 50.883-15.535-3.4531-31.367-5.4102-47.277-5.8398v-45.109zm0-54.41v-0.007813c15.91-0.43359 31.742-2.3867 47.277-5.8438 3.5234 14.598 5.6016 29.508 6.2031 44.512l-53.48-0.066406v-38.625zm0-75.398c20.531 5.7148 35.094 31.504 42.832 54.289l0.003906-0.007813c-14.086 3.0547-28.426 4.7969-42.836 5.1992v-59.512zm109.25 7.9727v-0.007812c-23.18-23.18-52.711-38.969-84.863-45.363s-65.477-3.1133-95.762 9.4297c-30.285 12.547-56.172 33.789-74.387 61.047-18.211 27.258-27.93 59.301-27.93 92.082s9.7188 64.828 27.93 92.082c18.215 27.258 44.102 48.5 74.387 61.047 30.285 12.543 63.609 15.824 95.762 9.4297 32.152-6.3945 61.684-22.184 84.863-45.363 20.578-20.57 35.375-46.199 42.906-74.305 7.5312-28.105 7.5312-57.695 0.003906-85.801-7.5312-28.105-22.328-53.734-42.902-74.309z" fill="#fff" fill-rule="evenodd"/>
</svg>
